[gd_scene load_steps=4 format=2]

[ext_resource path="res://Sprites/lever.png" type="Texture" id=1]
[ext_resource path="res://Lever.gd" type="Script" id=2]

[sub_resource type="RectangleShape2D" id=1]
extents = Vector2( 50, 50 )

[node name="Lever" type="Sprite"]
position = Vector2( 51.4565, 50.7213 )
texture = ExtResource( 1 )
script = ExtResource( 2 )

[node name="Area2D" type="Area2D" parent="."]

[node name="CollisionShape2D" type="CollisionShape2D" parent="Area2D"]
shape = SubResource( 1 )
[connection signal="body_entered" from="Area2D" to="." method="_on_Area2D_body_entered"]
[connection signal="body_exited" from="Area2D" to="." method="_on_Area2D_body_exited"]
